…
This is a good start, but let’s make it a bit more readable by replacing the filename with a country shorthand.

df <- df %>%
  mutate(Country =  c("NZ", "USA", "AUS", "CAN") [grepl("new-zealand", File)+2*grepl("united-states", File)+3*grepl("australia", File)+4*grepl("canada", File)])

df
## # A tibble: 2,034 x 4
##    File                                           date       Value Country
##    <chr>                                          <date>     <dbl> <chr>  
##  1 consumer-price-index-all-items-for-new-zealan~ 1955-01-01    NA NZ     
##  2 consumer-price-index-all-items-for-new-zealan~ 1955-04-01    NA NZ     
##  3 consumer-price-index-all-items-for-new-zealan~ 1955-07-01    NA NZ     
##  4 consumer-price-index-all-items-for-new-zealan~ 1955-10-01    NA NZ     
##  5 consumer-price-index-all-items-for-new-zealan~ 1956-01-01    NA NZ     
##  6 consumer-price-index-all-items-for-new-zealan~ 1956-04-01    NA NZ     
##  7 consumer-price-index-all-items-for-new-zealan~ 1956-07-01    NA NZ     
##  8 consumer-price-index-all-items-for-new-zealan~ 1956-10-01    NA NZ     
##  9 consumer-price-index-all-items-for-new-zealan~ 1957-01-01    NA NZ     
## 10 consumer-price-index-all-items-for-new-zealan~ 1957-04-01    NA NZ     
## # ... with 2,024 more rows
…
